%YAML 1.1
%TAG !u! tag:unity3d.com,2011:
--- !u!319 &31900000
AvatarMask:
  m_ObjectHideFlags: 0
  m_CorrespondingSourceObject: {fileID: 0}
  m_PrefabInstance: {fileID: 0}
  m_PrefabAsset: {fileID: 0}
  m_Name: HandsAvatarMask
  m_Mask: 00000000010000000100000000000000000000000100000001000000010000000100000000000000000000000000000000000000
  m_Elements:
  - m_Path: 
    m_Weight: 1
  - m_Path: Character_Female_Face_01
    m_Weight: 0
  - m_Path: Character_Male_Face_01
    m_Weight: 0
  - m_Path: Root
    m_Weight: 1
  - m_Path: Root/Hips
    m_Weight: 1
  - m_Path: Root/Hips/Spine_01
    m_Weight: 1
  - m_Path: Root/Hips/Spine_01/Spine_02
    m_Weight: 1
  - m_Path: Root/Hips/Spine_01/Spine_02/Spine_03
    m_Weight: 1
  - m_Path: Root/Hips/Spine_01/Spine_02/Spine_03/Clavicle_L
    m_Weight: 1
  - m_Path: Root/Hips/Spine_01/Spine_02/Spine_03/Clavicle_L/Shoulder_L
    m_Weight: 1
  - m_Path: Root/Hips/Spine_01/Spine_02/Spine_03/Clavicle_L/Shoulder_L/Elbow_L
    m_Weight: 1
  - m_Path: Root/Hips/Spine_01/Spine_02/Spine_03/Clavicle_L/Shoulder_L/Elbow_L/Hand_L
    m_Weight: 1
  - m_Path: Root/Hips/Spine_01/Spine_02/Spine_03/Clavicle_L/Shoulder_L/Elbow_L/Hand_L/Finger_01
    m_Weight: 1
  - m_Path: Root/Hips/Spine_01/Spine_02/Spine_03/Clavicle_L/Shoulder_L/Elbow_L/Hand_L/Finger_01/Finger_02
    m_Weight: 1
  - m_Path: Root/Hips/Spine_01/Spine_02/Spine_03/Clavicle_L/Shoulder_L/Elbow_L/Hand_L/Finger_01/Finger_02/Finger_03
    m_Weight: 1
  - m_Path: Root/Hips/Spine_01/Spine_02/Spine_03/Clavicle_L/Shoulder_L/Elbow_L/Hand_L/Finger_01/Finger_02/Finger_03/Finger_04
    m_Weight: 1
  - m_Path: Root/Hips/Spine_01/Spine_02/Spine_03/Clavicle_L/Shoulder_L/Elbow_L/Hand_L/IndexFinger_01
    m_Weight: 1
  - m_Path: Root/Hips/Spine_01/Spine_02/Spine_03/Clavicle_L/Shoulder_L/Elbow_L/Hand_L/IndexFinger_01/IndexFinger_02
    m_Weight: 1
  - m_Path: Root/Hips/Spine_01/Spine_02/Spine_03/Clavicle_L/Shoulder_L/Elbow_L/Hand_L/IndexFinger_01/IndexFinger_02/IndexFinger_03
    m_Weight: 1
  - m_Path: Root/Hips/Spine_01/Spine_02/Spine_03/Clavicle_L/Shoulder_L/Elbow_L/Hand_L/IndexFinger_01/IndexFinger_02/IndexFinger_03/IndexFinger_04
    m_Weight: 1
  - m_Path: Root/Hips/Spine_01/Spine_02/Spine_03/Clavicle_L/Shoulder_L/Elbow_L/Hand_L/Thumb_01
    m_Weight: 1
  - m_Path: Root/Hips/Spine_01/Spine_02/Spine_03/Clavicle_L/Shoulder_L/Elbow_L/Hand_L/Thumb_01/Thumb_02
    m_Weight: 1
  - m_Path: Root/Hips/Spine_01/Spine_02/Spine_03/Clavicle_L/Shoulder_L/Elbow_L/Hand_L/Thumb_01/Thumb_02/Thumb_03
    m_Weight: 1
  - m_Path: Root/Hips/Spine_01/Spine_02/Spine_03/Clavicle_R
    m_Weight: 1
  - m_Path: Root/Hips/Spine_01/Spine_02/Spine_03/Clavicle_R/Shoulder_R
    m_Weight: 1
  - m_Path: Root/Hips/Spine_01/Spine_02/Spine_03/Clavicle_R/Shoulder_R/Elbow_R
    m_Weight: 1
  - m_Path: Root/Hips/Spine_01/Spine_02/Spine_03/Clavicle_R/Shoulder_R/Elbow_R/Hand_R
    m_Weight: 1
  - m_Path: Root/Hips/Spine_01/Spine_02/Spine_03/Clavicle_R/Shoulder_R/Elbow_R/Hand_R/Finger_01
      1
    m_Weight: 1
  - m_Path: Root/Hips/Spine_01/Spine_02/Spine_03/Clavicle_R/Shoulder_R/Elbow_R/Hand_R/Finger_01
      1/Finger_02 1
    m_Weight: 1
  - m_Path: Root/Hips/Spine_01/Spine_02/Spine_03/Clavicle_R/Shoulder_R/Elbow_R/Hand_R/Finger_01
      1/Finger_02 1/Finger_03 1
    m_Weight: 1
  - m_Path: Root/Hips/Spine_01/Spine_02/Spine_03/Clavicle_R/Shoulder_R/Elbow_R/Hand_R/Finger_01
      1/Finger_02 1/Finger_03 1/Finger_04 1
    m_Weight: 1
  - m_Path: Root/Hips/Spine_01/Spine_02/Spine_03/Clavicle_R/Shoulder_R/Elbow_R/Hand_R/IndexFinger_01
      1
    m_Weight: 1
  - m_Path: Root/Hips/Spine_01/Spine_02/Spine_03/Clavicle_R/Shoulder_R/Elbow_R/Hand_R/IndexFinger_01
      1/IndexFinger_02 1
    m_Weight: 1
  - m_Path: Root/Hips/Spine_01/Spine_02/Spine_03/Clavicle_R/Shoulder_R/Elbow_R/Hand_R/IndexFinger_01
      1/IndexFinger_02 1/IndexFinger_03 1
    m_Weight: 1
  - m_Path: Root/Hips/Spine_01/Spine_02/Spine_03/Clavicle_R/Shoulder_R/Elbow_R/Hand_R/IndexFinger_01
      1/IndexFinger_02 1/IndexFinger_03 1/IndexFinger_04 1
    m_Weight: 1
  - m_Path: Root/Hips/Spine_01/Spine_02/Spine_03/Clavicle_R/Shoulder_R/Elbow_R/Hand_R/Thumb_01
      1
    m_Weight: 1
  - m_Path: Root/Hips/Spine_01/Spine_02/Spine_03/Clavicle_R/Shoulder_R/Elbow_R/Hand_R/Thumb_01
      1/Thumb_02 1
    m_Weight: 1
  - m_Path: Root/Hips/Spine_01/Spine_02/Spine_03/Clavicle_R/Shoulder_R/Elbow_R/Hand_R/Thumb_01
      1/Thumb_02 1/Thumb_03 1
    m_Weight: 1
  - m_Path: Root/Hips/Spine_01/Spine_02/Spine_03/Neck
    m_Weight: 1
  - m_Path: Root/Hips/Spine_01/Spine_02/Spine_03/Neck/Head
    m_Weight: 1
  - m_Path: Root/Hips/Spine_01/Spine_02/Spine_03/Neck/Head/Character_Hair_Female_01
    m_Weight: 1
  - m_Path: Root/Hips/Spine_01/Spine_02/Spine_03/Neck/Head/Character_Hair_Male_01
    m_Weight: 1
  - m_Path: Root/Hips/Spine_01/Spine_02/Spine_03/Neck/Head/Eyebrows
    m_Weight: 1
  - m_Path: Root/Hips/Spine_01/Spine_02/Spine_03/Neck/Head/Eyes
    m_Weight: 1
  - m_Path: Root/Hips/UpperLeg_L
    m_Weight: 0
  - m_Path: Root/Hips/UpperLeg_L/LowerLeg_L
    m_Weight: 1
  - m_Path: Root/Hips/UpperLeg_L/LowerLeg_L/Ankle_L
    m_Weight: 1
  - m_Path: Root/Hips/UpperLeg_L/LowerLeg_L/Ankle_L/Ball_L
    m_Weight: 1
  - m_Path: Root/Hips/UpperLeg_L/LowerLeg_L/Ankle_L/Ball_L/Toes_L
    m_Weight: 1
  - m_Path: Root/Hips/UpperLeg_R
    m_Weight: 0
  - m_Path: Root/Hips/UpperLeg_R/LowerLeg_R
    m_Weight: 1
  - m_Path: Root/Hips/UpperLeg_R/LowerLeg_R/Ankle_R
    m_Weight: 1
  - m_Path: Root/Hips/UpperLeg_R/LowerLeg_R/Ankle_R/Ball_R
    m_Weight: 1
  - m_Path: Root/Hips/UpperLeg_R/LowerLeg_R/Ankle_R/Ball_R/Toes_R
    m_Weight: 1
